{
    "photos": {
        "page": 1,
        "pages": 15581,
        "perpage": 25,
        "total": "389514",
        "photo": [{
            "id": "49384787891",
            "owner": "58140394@N04",
            "secret": "f3fe7071ee",
            "server": "65535",
            "farm": 66,
            "title": "Over the edge.",
            "ispublic": 1,
            "isfriend": 0,
            "isfamily": 0
        },{
            "id": "49384279453",
            "owner": "50471075@N06",
            "secret": "fac8ce3dab",
            "server": "65535",
            "farm": 66,
            "title": "ALDEYJARFOSS",
            "ispublic": 1,
            "isfriend": 0,
            "isfamily": 0
            
        },{
            "id": "49384122463",
            "owner": "133095026@N06",
            "secret": "5356e60e06",
            "server": "65535",
            "farm": 66,
            "title": "Under the Tidal Christmas Tree",
            "ispublic": 1,
            "isfriend": 0,
            "isfamily": 0
        },{
            "id": "49384580726",
            "owner": "133095026@N06",
            "secret": "d0e1a5b445",
            "server": "65535",
            "farm": 66,
            "title": "Algae Harbour",
            "ispublic": 1,
            "isfriend": 0,
            "isfamily": 0
        },{
            "id": "49384543286",
            "owner": "51919822@N05",
            "secret": "e76c891098",
            "server": "65535",
            "farm": 66,
            "title": "斯科加瀑布 ,Skógafoss ,彩虹瀑布",
            "ispublic": 1,
            "isfriend": 0,
            "isfamily": 0
        },{
            "id": "49384044098",
            "owner": "27566485@N02",
            "secret": "c38f1f0636",
            "server": "65535",
            "farm": 66,
            "title": "Hvítserkur",
            "ispublic": 1,
            "isfriend": 0,
            "isfamily": 0
        },{
            "id": "49384013153",
            "owner": "186533371@N08",
            "secret": "e2770508e0",
            "server": "65535",
            "farm": 66,
            "title": "_AAC7642",
            "ispublic": 1,
            "isfriend": 0,
            "isfamily": 0
        },{
            "id": "49384592867",
            "owner": "17006548@N04",
            "secret": "f862327284",
            "server": "65535",
            "farm": 66,
            "title": "Álftaneskaffi, Iceland",
            "ispublic": 1,
            "isfriend": 0,
            "isfamily": 0
        },{
            "id": "49384296961",
            "owner": "75465910@N00",
            "secret": "24972af499",
            "server": "65535",
            "farm": 66,
            "title": "ice in water",
            "ispublic": 1,
            "isfriend": 0,
            "isfamily": 0
        },{
            "id": "49384435152",
            "owner": "112962348@N06",
            "secret": "f87655c704",
            "server": "65535",
            "farm": 66,
            "title": "Svartifoss",
            "ispublic": 1,
            "isfriend": 0,
            "isfamily": 0
        }]
    },
    "stat": "ok"
}
